%YAML 1.1
%TAG !u! tag:unity3d.com,2011:
--- !u!114 &11400000
MonoBehaviour:
  m_ObjectHideFlags: 0
  m_CorrespondingSourceObject: {fileID: 0}
  m_PrefabInternal: {fileID: 0}
  m_GameObject: {fileID: 0}
  m_Enabled: 1
  m_EditorHideFlags: 0
  m_Script: {fileID: 11500000, guid: 9d1514134bc4fbd41bb739b1b9a49231, type: 3}
  m_Name: wood_floorL0
  m_EditorClassIdentifier: 
  m_DefaultSprite: {fileID: 21300000, guid: 2f9485d4ca6214900b3b52b257360c10, type: 3}
  m_DefaultColliderType: 1
  m_TilingRules:
  - m_Neighbors: 0000000000000000000000000100000001000000020000000100000002000000
    m_Sprites:
    - {fileID: 21300000, guid: 44ac4446e61d84f169660f8dfa03affc, type: 3}
    m_AnimationSpeed: 1
    m_PerlinScale: 0.5
    m_RuleTransform: 0
    m_Output: 0
    m_ColliderType: 1
    m_RandomTransform: 0
  - m_Neighbors: 0000000000000000000000000100000001000000010000000100000002000000
    m_Sprites:
    - {fileID: 21300000, guid: 96dae3f63469644148583aefbd2b5fc1, type: 3}
    m_AnimationSpeed: 1
    m_PerlinScale: 0.5
    m_RuleTransform: 0
    m_Output: 0
    m_ColliderType: 1
    m_RandomTransform: 0
  - m_Neighbors: 0000000000000000000000000100000001000000020000000100000001000000
    m_Sprites:
    - {fileID: 21300000, guid: 0d95386047a2542fc88a5ed9b2ff3337, type: 3}
    m_AnimationSpeed: 1
    m_PerlinScale: 0.5
    m_RuleTransform: 0
    m_Output: 0
    m_ColliderType: 1
    m_RandomTransform: 0
  - m_Neighbors: 0000000001000000000000000200000002000000000000000200000000000000
    m_Sprites:
    - {fileID: 21300000, guid: 19147e95dc1d74ecaa1feafb786b80f9, type: 3}
    m_AnimationSpeed: 1
    m_PerlinScale: 0.5
    m_RuleTransform: 0
    m_Output: 0
    m_ColliderType: 1
    m_RandomTransform: 0
  - m_Neighbors: 0000000000000000000000000200000001000000000000000200000000000000
    m_Sprites:
    - {fileID: 21300000, guid: b1375d21994c24b1f993466c468313f3, type: 3}
    m_AnimationSpeed: 1
    m_PerlinScale: 0.5
    m_RuleTransform: 0
    m_Output: 0
    m_ColliderType: 1
    m_RandomTransform: 0
  - m_Neighbors: 0000000000000000000000000100000002000000000000000200000000000000
    m_Sprites:
    - {fileID: 21300000, guid: 5a2af7df35d664a2c95b389064c20d56, type: 3}
    m_AnimationSpeed: 1
    m_PerlinScale: 0.5
    m_RuleTransform: 0
    m_Output: 0
    m_ColliderType: 1
    m_RandomTransform: 0
  - m_Neighbors: 0000000000000000000000000000000000000000000000000200000000000000
    m_Sprites:
    - {fileID: 21300000, guid: bc15cdc8dcb9541cdad700bf9e4688f6, type: 3}
    m_AnimationSpeed: 1
    m_PerlinScale: 0.5
    m_RuleTransform: 0
    m_Output: 0
    m_ColliderType: 1
    m_RandomTransform: 0
  - m_Neighbors: 0000000000000000000000000200000001000000000000000000000000000000
    m_Sprites:
    - {fileID: 21300000, guid: 4ee03e57cf17e4051b85f822eceec3c2, type: 3}
    m_AnimationSpeed: 1
    m_PerlinScale: 0.5
    m_RuleTransform: 0
    m_Output: 0
    m_ColliderType: 1
    m_RandomTransform: 0
  - m_Neighbors: 0000000000000000000000000100000002000000000000000000000000000000
    m_Sprites:
    - {fileID: 21300000, guid: 624ff371d2bc342a1a6f8adff1f78955, type: 3}
    m_AnimationSpeed: 1
    m_PerlinScale: 0.5
    m_RuleTransform: 0
    m_Output: 0
    m_ColliderType: 1
    m_RandomTransform: 0
  - m_Neighbors: 0000000000000000000000000200000002000000000000000100000000000000
    m_Sprites:
    - {fileID: 21300000, guid: 47566c5cbafba441998291dc037c7e4c, type: 3}
    m_AnimationSpeed: 1
    m_PerlinScale: 0.5
    m_RuleTransform: 0
    m_Output: 0
    m_ColliderType: 1
    m_RandomTransform: 0
  - m_Neighbors: 0000000000000000000000000000000000000000000000000000000000000000
    m_Sprites:
    - {fileID: 21300000, guid: 2f9485d4ca6214900b3b52b257360c10, type: 3}
    m_AnimationSpeed: 1
    m_PerlinScale: 0.5
    m_RuleTransform: 0
    m_Output: 0
    m_ColliderType: 1
    m_RandomTransform: 0
