%YAML 1.1
%TAG !u! tag:unity3d.com,2011:
--- !u!114 &11400000
MonoBehaviour:
  m_ObjectHideFlags: 0
  m_CorrespondingSourceObject: {fileID: 0}
  m_PrefabInternal: {fileID: 0}
  m_GameObject: {fileID: 0}
  m_Enabled: 1
  m_EditorHideFlags: 0
  m_Script: {fileID: 11500000, guid: 9d1514134bc4fbd41bb739b1b9a49231, type: 3}
  m_Name: brown
  m_EditorClassIdentifier: 
  m_DefaultSprite: {fileID: 21300788, guid: d64cf98fed007464d98ad28fdf699055, type: 3}
  m_DefaultColliderType: 1
  m_TilingRules:
  - m_Neighbors: 0200000002000000020000000100000001000000020000000100000002000000
    m_Sprites:
    - {fileID: 21300788, guid: d64cf98fed007464d98ad28fdf699055, type: 3}
    m_AnimationSpeed: 1
    m_PerlinScale: 0.5
    m_RuleTransform: 0
    m_Output: 0
    m_ColliderType: 1
    m_RandomTransform: 0
  - m_Neighbors: 0200000001000000020000000100000002000000020000000100000002000000
    m_Sprites:
    - {fileID: 21300790, guid: d64cf98fed007464d98ad28fdf699055, type: 3}
    m_AnimationSpeed: 1
    m_PerlinScale: 0.5
    m_RuleTransform: 0
    m_Output: 0
    m_ColliderType: 1
    m_RandomTransform: 0
  - m_Neighbors: 0000000002000000000000000200000001000000000000000100000002000000
    m_Sprites:
    - {fileID: 21300792, guid: d64cf98fed007464d98ad28fdf699055, type: 3}
    m_AnimationSpeed: 1
    m_PerlinScale: 0.5
    m_RuleTransform: 0
    m_Output: 0
    m_ColliderType: 1
    m_RandomTransform: 0
  - m_Neighbors: 0000000002000000000000000100000002000000020000000100000000000000
    m_Sprites:
    - {fileID: 21300794, guid: d64cf98fed007464d98ad28fdf699055, type: 3}
    m_AnimationSpeed: 1
    m_PerlinScale: 0.5
    m_RuleTransform: 0
    m_Output: 0
    m_ColliderType: 1
    m_RandomTransform: 0
  - m_Neighbors: 0000000001000000000000000200000002000000000000000100000000000000
    m_Sprites:
    - {fileID: 21300796, guid: d64cf98fed007464d98ad28fdf699055, type: 3}
    m_AnimationSpeed: 1
    m_PerlinScale: 0.5
    m_RuleTransform: 0
    m_Output: 0
    m_ColliderType: 1
    m_RandomTransform: 0
  - m_Neighbors: 0200000001000000020000000200000001000000020000000100000002000000
    m_Sprites:
    - {fileID: 21300894, guid: d64cf98fed007464d98ad28fdf699055, type: 3}
    m_AnimationSpeed: 1
    m_PerlinScale: 0.5
    m_RuleTransform: 0
    m_Output: 0
    m_ColliderType: 1
    m_RandomTransform: 0
  - m_Neighbors: 0200000001000000020000000100000001000000020000000200000002000000
    m_Sprites:
    - {fileID: 21300896, guid: d64cf98fed007464d98ad28fdf699055, type: 3}
    m_AnimationSpeed: 1
    m_PerlinScale: 0.5
    m_RuleTransform: 0
    m_Output: 0
    m_ColliderType: 1
    m_RandomTransform: 0
  - m_Neighbors: 0000000001000000020000000200000001000000020000000200000000000000
    m_Sprites:
    - {fileID: 21300898, guid: d64cf98fed007464d98ad28fdf699055, type: 3}
    m_AnimationSpeed: 1
    m_PerlinScale: 0.5
    m_RuleTransform: 0
    m_Output: 0
    m_ColliderType: 1
    m_RandomTransform: 0
  - m_Neighbors: 0200000001000000000000000100000002000000000000000200000000000000
    m_Sprites:
    - {fileID: 21300900, guid: d64cf98fed007464d98ad28fdf699055, type: 3}
    m_AnimationSpeed: 1
    m_PerlinScale: 0.5
    m_RuleTransform: 0
    m_Output: 0
    m_ColliderType: 1
    m_RandomTransform: 0
  - m_Neighbors: 0000000002000000000000000100000001000000000000000200000000000000
    m_Sprites:
    - {fileID: 21300902, guid: d64cf98fed007464d98ad28fdf699055, type: 3}
    m_AnimationSpeed: 1
    m_PerlinScale: 0.5
    m_RuleTransform: 0
    m_Output: 0
    m_ColliderType: 1
    m_RandomTransform: 0
  - m_Neighbors: 0100000001000000010000000100000001000000010000000100000002000000
    m_Sprites:
    - {fileID: 21301002, guid: d64cf98fed007464d98ad28fdf699055, type: 3}
    m_AnimationSpeed: 1
    m_PerlinScale: 0.5
    m_RuleTransform: 0
    m_Output: 0
    m_ColliderType: 1
    m_RandomTransform: 0
  - m_Neighbors: 0100000001000000010000000100000001000000020000000100000001000000
    m_Sprites:
    - {fileID: 21301004, guid: d64cf98fed007464d98ad28fdf699055, type: 3}
    m_AnimationSpeed: 1
    m_PerlinScale: 0.5
    m_RuleTransform: 0
    m_Output: 0
    m_ColliderType: 1
    m_RandomTransform: 0
  - m_Neighbors: 0200000002000000000000000200000001000000000000000100000001000000
    m_Sprites:
    - {fileID: 21301006, guid: d64cf98fed007464d98ad28fdf699055, type: 3}
    m_AnimationSpeed: 1
    m_PerlinScale: 0.5
    m_RuleTransform: 0
    m_Output: 0
    m_ColliderType: 1
    m_RandomTransform: 0
  - m_Neighbors: 0000000002000000000000000100000001000000000000000100000000000000
    m_Sprites:
    - {fileID: 21301008, guid: d64cf98fed007464d98ad28fdf699055, type: 3}
    m_AnimationSpeed: 1
    m_PerlinScale: 0.5
    m_RuleTransform: 0
    m_Output: 0
    m_ColliderType: 1
    m_RandomTransform: 0
  - m_Neighbors: 0000000002000000020000000100000002000000010000000100000000000000
    m_Sprites:
    - {fileID: 21301010, guid: d64cf98fed007464d98ad28fdf699055, type: 3}
    m_AnimationSpeed: 1
    m_PerlinScale: 0.5
    m_RuleTransform: 0
    m_Output: 0
    m_ColliderType: 1
    m_RandomTransform: 0
  - m_Neighbors: 0100000001000000020000000100000001000000010000000100000001000000
    m_Sprites:
    - {fileID: 21301114, guid: d64cf98fed007464d98ad28fdf699055, type: 3}
    m_AnimationSpeed: 1
    m_PerlinScale: 0.5
    m_RuleTransform: 0
    m_Output: 0
    m_ColliderType: 1
    m_RandomTransform: 0
  - m_Neighbors: 0200000001000000010000000100000001000000010000000100000001000000
    m_Sprites:
    - {fileID: 21301116, guid: d64cf98fed007464d98ad28fdf699055, type: 3}
    m_AnimationSpeed: 1
    m_PerlinScale: 0.5
    m_RuleTransform: 0
    m_Output: 0
    m_ColliderType: 1
    m_RandomTransform: 0
  - m_Neighbors: 0000000001000000000000000200000001000000000000000100000000000000
    m_Sprites:
    - {fileID: 21301118, guid: d64cf98fed007464d98ad28fdf699055, type: 3}
    m_AnimationSpeed: 1
    m_PerlinScale: 0.5
    m_RuleTransform: 0
    m_Output: 0
    m_ColliderType: 1
    m_RandomTransform: 0
  - m_Neighbors: 0100000001000000010000000100000001000000010000000100000001000000
    m_Sprites:
    - {fileID: 21301120, guid: d64cf98fed007464d98ad28fdf699055, type: 3}
    m_AnimationSpeed: 1
    m_PerlinScale: 0.5
    m_RuleTransform: 0
    m_Output: 0
    m_ColliderType: 1
    m_RandomTransform: 0
  - m_Neighbors: 0100000001000000000000000100000002000000010000000100000000000000
    m_Sprites:
    - {fileID: 21301122, guid: d64cf98fed007464d98ad28fdf699055, type: 3}
    m_AnimationSpeed: 1
    m_PerlinScale: 0.5
    m_RuleTransform: 0
    m_Output: 0
    m_ColliderType: 1
    m_RandomTransform: 0
  - m_Neighbors: 0000000001000000000000000200000002000000020000000200000002000000
    m_Sprites:
    - {fileID: 21301222, guid: d64cf98fed007464d98ad28fdf699055, type: 3}
    m_AnimationSpeed: 1
    m_PerlinScale: 0.5
    m_RuleTransform: 0
    m_Output: 0
    m_ColliderType: 1
    m_RandomTransform: 0
  - m_Neighbors: 0200000002000000020000000200000002000000000000000100000000000000
    m_Sprites:
    - {fileID: 21301224, guid: d64cf98fed007464d98ad28fdf699055, type: 3}
    m_AnimationSpeed: 1
    m_PerlinScale: 0.5
    m_RuleTransform: 0
    m_Output: 0
    m_ColliderType: 1
    m_RandomTransform: 0
  - m_Neighbors: 0000000001000000010000000200000001000000020000000200000000000000
    m_Sprites:
    - {fileID: 21301226, guid: d64cf98fed007464d98ad28fdf699055, type: 3}
    m_AnimationSpeed: 1
    m_PerlinScale: 0.5
    m_RuleTransform: 0
    m_Output: 0
    m_ColliderType: 1
    m_RandomTransform: 0
  - m_Neighbors: 0000000001000000000000000100000001000000000000000200000000000000
    m_Sprites:
    - {fileID: 21301228, guid: d64cf98fed007464d98ad28fdf699055, type: 3}
    m_AnimationSpeed: 1
    m_PerlinScale: 0.5
    m_RuleTransform: 0
    m_Output: 0
    m_ColliderType: 1
    m_RandomTransform: 0
  - m_Neighbors: 0100000001000000000000000100000002000000000000000200000002000000
    m_Sprites:
    - {fileID: 21301230, guid: d64cf98fed007464d98ad28fdf699055, type: 3}
    m_AnimationSpeed: 1
    m_PerlinScale: 0.5
    m_RuleTransform: 0
    m_Output: 0
    m_ColliderType: 1
    m_RandomTransform: 0
  - m_Neighbors: 0200000002000000020000000100000002000000020000000200000002000000
    m_Sprites:
    - {fileID: 21301336, guid: d64cf98fed007464d98ad28fdf699055, type: 3}
    m_AnimationSpeed: 1
    m_PerlinScale: 0.5
    m_RuleTransform: 0
    m_Output: 0
    m_ColliderType: 1
    m_RandomTransform: 0
  - m_Neighbors: 0200000002000000020000000200000001000000020000000200000002000000
    m_Sprites:
    - {fileID: 21301338, guid: d64cf98fed007464d98ad28fdf699055, type: 3}
    m_AnimationSpeed: 1
    m_PerlinScale: 0.5
    m_RuleTransform: 0
    m_Output: 0
    m_ColliderType: 1
    m_RandomTransform: 0
  - m_Neighbors: 0200000001000000020000000100000001000000020000000100000002000000
    m_Sprites:
    - {fileID: 21301340, guid: d64cf98fed007464d98ad28fdf699055, type: 3}
    m_AnimationSpeed: 1
    m_PerlinScale: 0.5
    m_RuleTransform: 0
    m_Output: 0
    m_ColliderType: 1
    m_RandomTransform: 0
  - m_Neighbors: 0200000002000000020000000200000002000000020000000200000002000000
    m_Sprites:
    - {fileID: 21301342, guid: d64cf98fed007464d98ad28fdf699055, type: 3}
    m_AnimationSpeed: 1
    m_PerlinScale: 0.5
    m_RuleTransform: 0
    m_Output: 0
    m_ColliderType: 1
    m_RandomTransform: 0
